RelogioProj/simulation/qsim/FPGA_TEST.msim.vcd
$comment
	File created using the following command:
		vcd file FPGA_TEST.msim.vcd -direction
$end
$date
	Mon Oct 01 13:17:32 2018
$end
$version
	ModelSim Version 10.5b
$end
$timescale
	1ps
$end

$scope module pulsosegundo_vhd_vec_tst $end
$var wire 1 ! clk $end
$var wire 1 " clk_sec $end
$var wire 1 # rst $end

$scope module i1 $end
$var wire 1 $ gnd $end
$var wire 1 % vcc $end
$var wire 1 & unknown $end
$var wire 1 ' devoe $end
$var wire 1 ( devclrn $end
$var wire 1 ) devpor $end
$var wire 1 * ww_devoe $end
$var wire 1 + ww_devclrn $end
$var wire 1 , ww_devpor $end
$var wire 1 - ww_clk $end
$var wire 1 . ww_rst $end
$var wire 1 / ww_clk_sec $end
$var wire 1 0 \clk_sec~output_o\ $end
$var wire 1 1 \clk~input_o\ $end
$var wire 1 2 \B0|Add0~0_combout\ $end
$var wire 1 3 \rst~input_o\ $end
$var wire 1 4 \B0|Add0~1\ $end
$var wire 1 5 \B0|Add0~2_combout\ $end
$var wire 1 6 \cnt_in~1_combout\ $end
$var wire 1 7 \B0|Add0~3\ $end
$var wire 1 8 \B0|Add0~4_combout\ $end
$var wire 1 9 \B0|Add0~5\ $end
$var wire 1 : \B0|Add0~6_combout\ $end
$var wire 1 ; \cnt_in~0_combout\ $end
$var wire 1 < \B0|Add0~7\ $end
$var wire 1 = \B0|Add0~8_combout\ $end
$var wire 1 > \B0|Add0~9\ $end
$var wire 1 ? \B0|Add0~10_combout\ $end
$var wire 1 @ \B0|Add0~11\ $end
$var wire 1 A \B0|Add0~12_combout\ $end
$var wire 1 B \B0|Add0~13\ $end
$var wire 1 C \B0|Add0~14_combout\ $end
$var wire 1 D \B0|Add0~15\ $end
$var wire 1 E \B0|Add0~16_combout\ $end
$var wire 1 F \B0|Add0~17\ $end
$var wire 1 G \B0|Add0~18_combout\ $end
$var wire 1 H \B0|Add0~19\ $end
$var wire 1 I \B0|Add0~20_combout\ $end
$var wire 1 J \B0|Add0~21\ $end
$var wire 1 K \B0|Add0~22_combout\ $end
$var wire 1 L \B0|Add0~23\ $end
$var wire 1 M \B0|Add0~24_combout\ $end
$var wire 1 N \B0|Add0~25\ $end
$var wire 1 O \B0|Add0~26_combout\ $end
$var wire 1 P \B0|Add0~27\ $end
$var wire 1 Q \B0|Add0~28_combout\ $end
$var wire 1 R \B0|Add0~29\ $end
$var wire 1 S \B0|Add0~30_combout\ $end
$var wire 1 T \B0|Add0~31\ $end
$var wire 1 U \B0|Add0~32_combout\ $end
$var wire 1 V \B0|Add0~33\ $end
$var wire 1 W \B0|Add0~34_combout\ $end
$var wire 1 X \B0|Add0~35\ $end
$var wire 1 Y \B0|Add0~36_combout\ $end
$var wire 1 Z \B0|Add0~37\ $end
$var wire 1 [ \B0|Add0~38_combout\ $end
$var wire 1 \ \B0|Add0~39\ $end
$var wire 1 ] \B0|Add0~40_combout\ $end
$var wire 1 ^ \B0|Add0~41\ $end
$var wire 1 _ \B0|Add0~42_combout\ $end
$var wire 1 ` \B0|Add0~43\ $end
$var wire 1 a \B0|Add0~44_combout\ $end
$var wire 1 b \B0|Add0~45\ $end
$var wire 1 c \B0|Add0~46_combout\ $end
$var wire 1 d \B0|Add0~47\ $end
$var wire 1 e \B0|Add0~48_combout\ $end
$var wire 1 f \B0|Add0~49\ $end
$var wire 1 g \B0|Add0~50_combout\ $end
$var wire 1 h \B0|Add0~51\ $end
$var wire 1 i \B0|Add0~52_combout\ $end
$var wire 1 j \B0|Add0~53\ $end
$var wire 1 k \B0|Add0~54_combout\ $end
$var wire 1 l \B0|Add0~55\ $end
$var wire 1 m \B0|Add0~56_combout\ $end
$var wire 1 n \B0|Add0~57\ $end
$var wire 1 o \B0|Add0~58_combout\ $end
$var wire 1 p \B0|Add0~59\ $end
$var wire 1 q \B0|Add0~60_combout\ $end
$var wire 1 r \B0|Add0~61\ $end
$var wire 1 s \B0|Add0~62_combout\ $end
$var wire 1 t \B0|Equal1~0_combout\ $end
$var wire 1 u \B0|Equal1~1_combout\ $end
$var wire 1 v \B0|Equal1~2_combout\ $end
$var wire 1 w \B0|Equal1~3_combout\ $end
$var wire 1 x \B0|Equal1~4_combout\ $end
$var wire 1 y \B0|Equal1~5_combout\ $end
$var wire 1 z \B0|Equal1~6_combout\ $end
$var wire 1 { \B0|Equal1~7_combout\ $end
$var wire 1 | \B0|Equal1~8_combout\ $end
$var wire 1 } \B0|Equal1~9_combout\ $end
$var wire 1 ~ \B0|Equal1~10_combout\ $end
$var wire 1 !! \clk_sec~0_combout\ $end
$var wire 1 "! \clk_sec~reg0_q\ $end
$var wire 1 #! cnt_in [31] $end
$var wire 1 $! cnt_in [30] $end
$var wire 1 %! cnt_in [29] $end
$var wire 1 &! cnt_in [28] $end
$var wire 1 '! cnt_in [27] $end
$var wire 1 (! cnt_in [26] $end
$var wire 1 )! cnt_in [25] $end
$var wire 1 *! cnt_in [24] $end
$var wire 1 +! cnt_in [23] $end
$var wire 1 ,! cnt_in [22] $end
$var wire 1 -! cnt_in [21] $end
$var wire 1 .! cnt_in [20] $end
$var wire 1 /! cnt_in [19] $end
$var wire 1 0! cnt_in [18] $end
$var wire 1 1! cnt_in [17] $end
$var wire 1 2! cnt_in [16] $end
$var wire 1 3! cnt_in [15] $end
$var wire 1 4! cnt_in [14] $end
$var wire 1 5! cnt_in [13] $end
$var wire 1 6! cnt_in [12] $end
$var wire 1 7! cnt_in [11] $end
$var wire 1 8! cnt_in [10] $end
$var wire 1 9! cnt_in [9] $end
$var wire 1 :! cnt_in [8] $end
$var wire 1 ;! cnt_in [7] $end
$var wire 1 <! cnt_in [6] $end
$var wire 1 =! cnt_in [5] $end
$var wire 1 >! cnt_in [4] $end
$var wire 1 ?! cnt_in [3] $end
$var wire 1 @! cnt_in [2] $end
$var wire 1 A! cnt_in [1] $end
$var wire 1 B! cnt_in [0] $end
$var wire 1 C! \ALT_INV_rst~input_o\ $end
$upscope $end
$upscope $end
$enddefinitions $end
#0
$dumpvars
0!
0"
0#
0$
1%
x&
1'
1(
1)
1*
1+
1,
0-
0.
0/
00
01
12
03
04
05
06
17
08
09
0:
0;
1<
0=
0>
0?
1@
0A
0B
0C
1D
0E
0F
0G
1H
0I
0J
0K
1L
0M
0N
0O
1P
0Q
0R
0S
1T
0U
0V
0W
1X
0Y
0Z
0[
1\
0]
0^
0_
1`
0a
0b
0c
1d
0e
0f
0g
1h
0i
0j
0k
1l
0m
0n
0o
1p
0q
0r
0s
1t
1u
1v
1w
1x
1y
1z
1{
1|
0}
0~
0!!
0"!
1C!
0#!
0$!
0%!
0&!
0'!
0(!
0)!
0*!
0+!
0,!
0-!
0.!
0/!
00!
01!
02!
03!
04!
05!
06!
07!
08!
09!
0:!
0;!
0<!
0=!
0>!
0?!
0@!
0A!
0B!
$end
#5000
1!
1-
11
1B!
02
14
15
16
#10000
0!
0-
01
#15000
1!
1-
11
0B!
1A!
05
07
12
04
15
17
18
06
08
16
#20000
0!
1#
0-
1.
13
01
0C!
0A!
05
06
#25000
1!
1-
11
#30000
0!
0-
01
#35000
1!
1-
11
#40000
0!
0#
0-
0.
03
01
1C!
#45000
1!
1-
11
1B!
02
14
15
16
#50000
0!
0-
01
#55000
1!
1-
11
0B!
1A!
05
07
12
04
15
17
18
06
08
16
#60000
0!
0-
01
#65000
1!
1-
11
1B!
02
14
05
07
18
06
#70000
0!
0-
01
#75000
1!
1-
11
0B!
0A!
1@!
08
19
15
17
12
04
05
18
09
16
1:
1;
0:
06
0;
#80000
0!
0-
01
#85000
1!
1-
11
1B!
02
14
15
16
#90000
0!
0-
01
#95000
1!
1-
11
0B!
1A!
05
07
12
04
15
17
08
19
06
1:
18
09
16
0:
1;
0;
#100000
0!
0-
01
#105000
1!
1-
11
1B!
02
14
05
07
08
19
06
1:
1;
#110000
0!
0-
01
#115000
1!
1-
11
0B!
0A!
0@!
1?!
0:
0<
18
09
15
17
12
04
05
08
16
1:
1<
1=
0;
0=
1;
06
#120000
0!
0-
01
#125000
1!
1-
11
1B!
02
14
1}
1~
15
0;
1!!
#130000
0!
0-
01
#135000
1!
1-
11
0B!
0?!
1"!
0!!
0:
12
04
0}
0~
05
10
1!!
1/
1"
#140000
0!
0-
01
#145000
1!
1-
11
1B!
02
14
15
16
#150000
0!
0-
01
#155000
1!
1-
11
0B!
1A!
05
07
12
04
15
17
18
06
08
16
#160000
0!
0-
01
#165000
1!
1-
11
1B!
02
14
05
07
18
06
#170000
0!
0-
01
#175000
1!
1-
11
0B!
0A!
1@!
08
19
15
17
12
04
05
18
09
16
1:
1;
0:
06
0;
#180000
0!
0-
01
#185000
1!
1-
11
1B!
02
14
15
16
#190000
0!
0-
01
#195000
1!
1-
11
0B!
1A!
05
07
12
04
15
17
08
19
06
1:
18
09
16
0:
1;
0;
#200000
0!
0-
01
#205000
1!
1-
11
1B!
02
14
05
07
08
19
06
1:
1;
#210000
0!
0-
01
#215000
1!
1-
11
0B!
0A!
0@!
1?!
0:
0<
18
09
15
17
12
04
05
08
16
1:
1<
1=
0;
0=
1;
06
#220000
0!
0-
01
#225000
1!
1-
11
1B!
02
14
1}
1~
15
0;
0!!
#230000
0!
0-
01
#235000
1!
1-
11
0B!
0?!
0"!
1!!
0:
12
04
0}
0~
05
00
0!!
0/
0"
#240000
0!
0-
01
#245000
1!
1-
11
1B!
02
14
15
16
#250000
0!
0-
01
#255000
1!
1-
11
0B!
1A!
05
07
12
04
15
17
18
06
08
16
#260000
0!
0-
01
#265000
1!
1-
11
1B!
02
14
05
07
18
06
#270000
0!
0-
01
#275000
1!
1-
11
0B!
0A!
1@!
08
19
15
17
12
04
05
18
09
16
1:
1;
0:
06
0;
#280000
0!
0-
01
#285000
1!
1-
11
1B!
02
14
15
16
#290000
0!
0-
01
#295000
1!
1-
11
0B!
1A!
05
07
12
04
15
17
08
19
06
1:
18
09
16
0:
1;
0;
#300000
0!
0-
01
#305000
1!
1-
11
1B!
02
14
05
07
08
19
06
1:
1;
#310000
0!
0-
01
#315000
1!
1-
11
0B!
0A!
0@!
1?!
0:
0<
18
09
15
17
12
04
05
08
16
1:
1<
1=
0;
0=
1;
06
#320000
0!
0-
01
#325000
1!
1-
11
1B!
02
14
1}
1~
15
0;
1!!
#330000
0!
0-
01
#335000
1!
1-
11
0B!
0?!
1"!
0!!
0:
12
04
0}
0~
05
10
1!!
1/
1"
#340000
0!
0-
01
#345000
1!
1-
11
1B!
02
14
15
16
#350000
0!
0-
01
#355000
1!
1-
11
0B!
1A!
05
07
12
04
15
17
18
06
08
16
#360000
0!
0-
01
#365000
1!
1-
11
1B!
02
14
05
07
18
06
#370000
0!
0-
01
#375000
1!
1-
11
0B!
0A!
1@!
08
19
15
17
12
04
05
18
09
16
1:
1;
0:
06
0;
#380000
0!
0-
01
#385000
1!
1-
11
1B!
02
14
15
16
#390000
0!
0-
01
#395000
1!
1-
11
0B!
1A!
05
07
12
04
15
17
08
19
06
1:
18
09
16
0:
1;
0;
#400000
0!
0-
01
#405000
1!
1-
11
1B!
02
14
05
07
08
19
06
1:
1;
#410000
0!
0-
01
#415000
1!
1-
11
0B!
0A!
0@!
1?!
0:
0<
18
09
15
17
12
04
05
08
16
1:
1<
1=
0;
0=
1;
06
#420000
0!
0-
01
#425000
1!
1-
11
1B!
02
14
1}
1~
15
0;
0!!
#430000
0!
0-
01
#435000
1!
1-
11
0B!
0?!
0"!
1!!
0:
12
04
0}
0~
05
00
0!!
0/
0"
#440000
0!
0-
01
#445000
1!
1-
11
1B!
02
14
15
16
#450000
0!
0-
01
#455000
1!
1-
11
0B!
1A!
05
07
12
04
15
17
18
06
08
16
#460000
0!
0-
01
#465000
1!
1-
11
1B!
02
14
05
07
18
06
#470000
0!
0-
01
#475000
1!
1-
11
0B!
0A!
1@!
08
19
15
17
12
04
05
18
09
16
1:
1;
0:
06
0;
#480000
0!
0-
01
#485000
1!
1-
11
1B!
02
14
15
16
#490000
0!
0-
01
#495000
1!
1-
11
0B!
1A!
05
07
12
04
15
17
08
19
06
1:
18
09
16
0:
1;
0;
#500000
0!
0-
01
#505000
1!
1-
11
1B!
02
14
05
07
08
19
06
1:
1;
#510000
0!
0-
01
#515000
1!
1-
11
0B!
0A!
0@!
1?!
0:
0<
18
09
15
17
12
04
05
08
16
1:
1<
1=
0;
0=
1;
06
#520000
0!
0-
01
#525000
1!
1-
11
1B!
02
14
1}
1~
15
0;
1!!
#530000
0!
0-
01
#535000
1!
1-
11
0B!
0?!
1"!
0!!
0:
12
04
0}
0~
05
10
1!!
1/
1"
#540000
0!
0-
01
#545000
1!
1-
11
1B!
02
14
15
16
#550000
0!
0-
01
#555000
1!
1-
11
0B!
1A!
05
07
12
04
15
17
18
06
08
16
#560000
0!
0-
01
#565000
1!
1-
11
1B!
02
14
05
07
18
06
#570000
0!
0-
01
#575000
1!
1-
11
0B!
0A!
1@!
08
19
15
17
12
04
05
18
09
16
1:
1;
0:
06
0;
#580000
0!
0-
01
#585000
1!
1-
11
1B!
02
14
15
16
#590000
0!
0-
01
#595000
1!
1-
11
0B!
1A!
05
07
12
04
15
17
08
19
06
1:
18
09
16
0:
1;
0;
#600000
0!
0-
01
#605000
1!
1-
11
1B!
02
14
05
07
08
19
06
1:
1;
#610000
0!
0-
01
#615000
1!
1-
11
0B!
0A!
0@!
1?!
0:
0<
18
09
15
17
12
04
05
08
16
1:
1<
1=
0;
0=
1;
06
#620000
0!
0-
01
#625000
1!
1-
11
1B!
02
14
1}
1~
15
0;
0!!
#630000
0!
0-
01
#635000
1!
1-
11
0B!
0?!
0"!
1!!
0:
12
04
0}
0~
05
00
0!!
0/
0"
#640000
0!
0-
01
#645000
1!
1-
11
1B!
02
14
15
16
#650000
0!
0-
01
#655000
1!
1-
11
0B!
1A!
05
07
12
04
15
17
18
06
08
16
#660000
0!
0-
01
#665000
1!
1-
11
1B!
02
14
05
07
18
06
#670000
0!
0-
01
#675000
1!
1-
11
0B!
0A!
1@!
08
19
15
17
12
04
05
18
09
16
1:
1;
0:
06
0;
#680000
0!
0-
01
#685000
1!
1-
11
1B!
02
14
15
16
#690000
0!
0-
01
#695000
1!
1-
11
0B!
1A!
05
07
12
04
15
17
08
19
06
1:
18
09
16
0:
1;
0;
#700000
0!
0-
01
#705000
1!
1-
11
1B!
02
14
05
07
08
19
06
1:
1;
#710000
0!
0-
01
#715000
1!
1-
11
0B!
0A!
0@!
1?!
0:
0<
18
09
15
17
12
04
05
08
16
1:
1<
1=
0;
0=
1;
06
#720000
0!
0-
01
#725000
1!
1-
11
1B!
02
14
1}
1~
15
0;
1!!
#730000
0!
0-
01
#735000
1!
1-
11
0B!
0?!
1"!
0!!
0:
12
04
0}
0~
05
10
1!!
1/
1"
#740000
0!
0-
01
#745000
1!
1-
11
1B!
02
14
15
16
#750000
0!
0-
01
#755000
1!
1-
11
0B!
1A!
05
07
12
04
15
17
18
06
08
16
#760000
0!
0-
01
#765000
1!
1-
11
1B!
02
14
05
07
18
06
#770000
0!
0-
01
#775000
1!
1-
11
0B!
0A!
1@!
08
19
15
17
12
04
05
18
09
16
1:
1;
0:
06
0;
#780000
0!
0-
01
#785000
1!
1-
11
1B!
02
14
15
16
#790000
0!
0-
01
#795000
1!
1-
11
0B!
1A!
05
07
12
04
15
17
08
19
06
1:
18
09
16
0:
1;
0;
#800000
0!
0-
01
#805000
1!
1-
11
1B!
02
14
05
07
08
19
06
1:
1;
#810000
0!
0-
01
#815000
1!
1-
11
0B!
0A!
0@!
1?!
0:
0<
18
09
15
17
12
04
05
08
16
1:
1<
1=
0;
0=
1;
06
#820000
0!
0-
01
#825000
1!
1-
11
1B!
02
14
1}
1~
15
0;
0!!
#830000
0!
0-
01
#835000
1!
1-
11
0B!
0?!
0"!
1!!
0:
12
04
0}
0~
05
00
0!!
0/
0"
#840000
0!
0-
01
#845000
1!
1-
11
1B!
02
14
15
16
#850000
0!
0-
01
#855000
1!
1-
11
0B!
1A!
05
07
12
04
15
17
18
06
08
16
#860000
0!
0-
01
#865000
1!
1-
11
1B!
02
14
05
07
18
06
#870000
0!
0-
01
#875000
1!
1-
11
0B!
0A!
1@!
08
19
15
17
12
04
05
18
09
16
1:
1;
0:
06
0;
#880000
0!
0-
01
#885000
1!
1-
11
1B!
02
14
15
16
#890000
0!
0-
01
#895000
1!
1-
11
0B!
1A!
05
07
12
04
15
17
08
19
06
1:
18
09
16
0:
1;
0;
#900000
0!
0-
01
#905000
1!
1-
11
1B!
02
14
05
07
08
19
06
1:
1;
#910000
0!
0-
01
#915000
1!
1-
11
0B!
0A!
0@!
1?!
0:
0<
18
09
15
17
12
04
05
08
16
1:
1<
1=
0;
0=
1;
06
#920000
0!
0-
01
#925000
1!
1-
11
1B!
02
14
1}
1~
15
0;
1!!
#930000
0!
0-
01
#935000
1!
1-
11
0B!
0?!
1"!
0!!
0:
12
04
0}
0~
05
10
1!!
1/
1"
#940000
0!
0-
01
#945000
1!
1-
11
1B!
02
14
15
16
#950000
0!
0-
01
#955000
1!
1-
11
0B!
1A!
05
07
12
04
15
17
18
06
08
16
#960000
0!
0-
01
#965000
1!
1-
11
1B!
02
14
05
07
18
06
#970000
0!
0-
01
#975000
1!
1-
11
0B!
0A!
1@!
08
19
15
17
12
04
05
18
09
16
1:
1;
0:
06
0;
#980000
0!
0-
01
#985000
1!
1-
11
1B!
02
14
15
16
#990000
0!
0-
01
#995000
1!
1-
11
0B!
1A!
05
07
12
04
15
17
08
19
06
1:
18
09
16
0:
1;
0;
